…
## Tidy data


::: {.cell}

```{.r .cell-code}
delta_visits <- delta_visits_raw %>% 
    clean_names()
delta_visits
```

::: {.cell-output .cell-output-stdout}

```
# A tibble: 55 × 13
   eco_restore_approximate_loc…¹ reach latitude longitude date       time_of_day
   <chr>                         <chr>    <dbl>     <dbl> <date>     <chr>      
 1 Decker Island                 Bran…     38.1     -122. 2017-07-07 unknown    
 2 Decker Island                 Deck…     38.1     -122. 2017-07-07 unknown    
 3 Decker Island                 Deck…     38.1     -122. 2017-07-07 unknown    
 4 Decker Island                 Deck…     38.1     -122. 2017-09-13 unknown    
 5 Decker Island                 Bran…     38.1     -122. 2017-11-07 unknown    
 6 Decker Island                 Deck…     38.1     -122. 2017-11-07 unknown    
 7 Decker Island                 Deck…     38.1     -122. 2017-11-07 unknown    
 8 Decker Island                 Bran…     38.1     -122. 2017-12-08 morning    
 9 Decker Island                 Deck…     38.1     -122. 2017-12-08 morning    
10 Decker Island                 Deck…     38.1     -122. 2017-12-08 morning    
# ℹ 45 more rows
# ℹ abbreviated name: ¹​eco_restore_approximate_location
# ℹ 7 more variables: sm_boat <dbl>, med_boat <dbl>, lrg_boat <dbl>,
#   bank_angler <dbl>, scientist <dbl>, cars <dbl>, notes <chr>
```
…
::: {.cell}

```{.r .cell-code}
daily_visits_loc <- visits_long %>% 
    group_by(restore_loc, date, visitor_type) %>% 
    summarize(daily_visits= sum(quantity),
    .groups= "drop")

daily_visits_loc
```

::: {.cell-output .cell-output-stdout}

```
# A tibble: 144 × 4
   restore_loc   date       visitor_type daily_visits
   <chr>         <date>     <chr>               <dbl>
 1 Decker Island 2017-07-07 bank_angler             4
 2 Decker Island 2017-07-07 cars                    0
 3 Decker Island 2017-07-07 lrg_boat                0
 4 Decker Island 2017-07-07 med_boat                6
 5 Decker Island 2017-07-07 scientist               0
 6 Decker Island 2017-07-07 sm_boat                 0
 7 Decker Island 2017-09-13 bank_angler             0
 8 Decker Island 2017-09-13 cars                    0
 9 Decker Island 2017-09-13 lrg_boat                0
10 Decker Island 2017-09-13 med_boat                1
# ℹ 134 more rows
```
…
